<svg width="38" height="38" viewBox="0 0 38 38" fill="none" xmlns="http://www.w3.org/2000/svg">
    <path fill-rule="evenodd" clip-rule="evenodd" d="M29.4167 12.75H25.25V0.25H29.4167V4.41667H37.75V8.58333H29.4167V12.75ZM0.25 8.58333V4.41667H21.0833V8.58333H0.25ZM0.25 33.5833V29.4167H12.75V33.5833H0.25ZM21.0833 37.75V33.5833H37.75V29.4167H21.0833V25.25H16.9167V37.75H21.0833ZM8.58333 16.9167V12.75H12.75V25.25H8.58333V21.0833H0.25V16.9167H8.58333ZM37.75 21.0833V16.9167H16.9167V21.0833H37.75Z" fill="white"/>
</svg>
